[{
    "id": 1,
    "user_id": 2,
    "name": "\u0633\u0627\u0631\u0627",
    "image": null,
    "family": "\u0628\u06cc\u0627\u062a \u0646\u06cc\u0627",
    "description": null,
    "min_time": null,
    "score": null,
    "star": null,
    "type": null,
    "state": "1",
    "created_by": 1,
    "updated_by": 1,
    "created_at": "2019-11-07 05:45:18",
    "updated_at": "2019-11-10 18:11:55",
    "deleted_at": null,
    "order_services": [],
    "timing": []
}, {
    "id": 2,
    "user_id": 7,
    "name": "\u062d\u0646\u0627\u0646\u0647",
    "image": "images\/f750889d448753dfe8e05fed750d5a7a.jpg",
    "family": "\u0631\u0636\u0627\u06cc\u06cc",
    "description": null,
    "min_time": null,
    "score": null,
    "star": null,
    "type": null,
    "state": "0",
    "created_by": 1,
    "updated_by": 1,
    "created_at": "2019-11-09 00:45:58",
    "updated_at": "2020-01-04 16:37:04",
    "deleted_at": null,
    "order_services": [],
    "timing": []
}, {
    "id": 4,
    "user_id": 10,
    "name": "\u0641\u0631\u0646\u0627\u0632",
    "image": "images\/94f7872be31551dc3475dcbaf9718c52.jpg",
    "family": "\u0628\u0647\u0631\u0627\u0645\u06cc",
    "description": null,
    "min_time": 50,
    "score": null,
    "star": null,
    "type": null,
    "state": "1",
    "created_by": 1,
    "updated_by": 1,
    "created_at": "2019-11-09 19:29:13",
    "updated_at": "2020-03-02 20:27:08",
    "deleted_at": null,
    "order_services": [],
    "timing": []
}, {
    "id": 5,
    "user_id": 13,
    "name": "\u0633\u062d\u0631",
    "image": "images\/943fbdf969726ce5d316a80c72ad2b79.jpg",
    "family": "\u06a9\u0631\u0645\u0627\u0646\u06cc",
    "description": null,
    "min_time": null,
    "score": null,
    "star": null,
    "type": null,
    "state": null,
    "created_by": 1,
    "updated_by": 1,
    "created_at": "2019-11-30 19:51:19",
    "updated_at": "2019-12-25 21:17:41",
    "deleted_at": null,
    "order_services": [],
    "timing": []
}, {
    "id": 8,
    "user_id": 23,
    "name": "\u0628\u0647\u0627\u0631",
    "image": "images\/d26b5ee681264d26600d6fbb00149531.jpg",
    "family": "\u0635\u0627\u0644\u062d\u06cc",
    "description": null,
    "min_time": null,
    "score": null,
    "star": null,
    "type": null,
    "state": "1",
    "created_by": 1,
    "updated_by": 1,
    "created_at": "2019-12-10 17:52:26",
    "updated_at": "2020-01-14 11:26:33",
    "deleted_at": null,
    "order_services": [],
    "timing": []
}, {
    "id": 10,
    "user_id": 26,
    "name": "\u0645\u06cc\u0646\u0627",
    "image": "images\/d08150117a5a3690cf8673e874caa77d.jpg",
    "family": "\u063a\u0641\u0648\u0631\u06cc",
    "description": null,
    "min_time": 50,
    "score": null,
    "star": null,
    "type": null,
    "state": null,
    "created_by": 1,
    "updated_by": 1,
    "created_at": "2019-12-15 22:10:23",
    "updated_at": "2020-03-02 20:25:46",
    "deleted_at": null,
    "order_services": [],
    "timing": []
}, {
    "id": 11,
    "user_id": 1,
    "name": "\u0633\u0639\u06cc\u062f\u0647",
    "image": "images\/eb48eb727f069eefef5db8ac4ec76eb7.jpg",
    "family": "\u0631\u0636\u0627\u06cc\u06cc",
    "description": null,
    "min_time": null,
    "score": null,
    "star": null,
    "type": null,
    "state": null,
    "created_by": 1,
    "updated_by": 1,
    "created_at": "2019-12-15 22:10:23",
    "updated_at": "2019-12-25 21:17:24",
    "deleted_at": null,
    "order_services": [{
        "id": 762,
        "order_id": 603,
        "service_id": 1,
        "person_id": 11,
        "note": null,
        "number": null,
        "price": 100000,
        "discount": null,
        "tax": 0,
        "date": "2020-04-25",
        "start": "08:30:00",
        "end": "09:30:00",
        "type": null,
        "state": "0",
        "created_by": 2,
        "updated_by": null,
        "created_at": "2020-04-25 15:37:38",
        "updated_at": "2020-04-25 15:37:38",
        "deleted_at": null,
        "degree": null,
        "amount": null,
        "detail": null,
        "detail_type": null,
        "service": {
            "id": 1,
            "parent_id": null,
            "service_categories_id": 1,
            "title": "\u0627\u06a9\u0633\u062a\u0646\u0634\u0646",
            "image": "images\/83ceffeb87ba687a84e3d727a318be09.jpg",
            "description": "\u0627\u06a9\u0633\u062a\u0646\u0634\u0646",
            "initial_number": null,
            "remaining_number": null,
            "blocked_number": null,
            "reserved": null,
            "price": 100000,
            "predicted_price": null,
            "default_discount": null,
            "tax": 0,
            "min_time": 60,
            "max_time": 60,
            "star": null,
            "type": null,
            "state": null,
            "created_by": 1,
            "updated_by": 1,
            "created_at": "2019-11-07 04:42:49",
            "updated_at": "2020-01-01 15:13:52",
            "deleted_at": null,
            "score": null
        },
        "contact": {
            "id": 58,
            "user_id": 56,
            "personal_code": "92458",
            "image": null,
            "first_name": "\u0644\u06cc\u0644\u06cc",
            "last_name": "\u063a\u0641\u0627\u0631\u06cc",
            "mobile": "091235774647",
            "email": null,
            "tell": null,
            "country": null,
            "city": null,
            "address": null,
            "location": null,
            "post_code": null,
            "national_code": null,
            "type": null,
            "state": null,
            "created_by": 1,
            "updated_by": null,
            "created_at": "2020-03-09 12:24:37",
            "updated_at": "2020-03-09 12:24:37",
            "deleted_at": null,
            "group_id": null,
            "laravel_through_key": 603
        }
    }],
    "timing": [{
        "id": 521,
        "person_id": 11,
        "title": null,
        "description": "1",
        "date": "2020-04-25",
        "start": "08:30:00",
        "end": "22:00:00",
        "type": null,
        "state": null,
        "created_by": 2,
        "updated_by": null,
        "created_at": "2020-04-25 15:18:24",
        "updated_at": "2020-04-25 15:18:24",
        "deleted_at": null
    }]
}, {
    "id": 12,
    "user_id": 38,
    "name": "\u0645\u0647\u062a\u0627\u0628",
    "image": "null",
    "family": "\u0634\u0631\u06cc\u0641\u06cc",
    "description": null,
    "min_time": null,
    "score": null,
    "star": null,
    "type": null,
    "state": "1",
    "created_by": 1,
    "updated_by": null,
    "created_at": "2020-02-08 11:15:28",
    "updated_at": "2020-02-08 11:15:28",
    "deleted_at": null,
    "order_services": [],
    "timing": []
}, {
    "id": 13,
    "user_id": 41,
    "name": "\u062a\u06cc\u0646\u0627",
    "image": "null",
    "family": "\u0645\u0631\u0639\u0634\u06cc",
    "description": null,
    "min_time": null,
    "score": null,
    "star": null,
    "type": null,
    "state": null,
    "created_by": 1,
    "updated_by": 1,
    "created_at": "2020-02-08 14:41:56",
    "updated_at": "2020-02-15 12:31:46",
    "deleted_at": null,
    "order_services": [],
    "timing": []
}, {
    "id": 14,
    "user_id": 50,
    "name": "\u0633\u0627\u0642\u06cc",
    "image": "null",
    "family": "\u0641\u0631\u0647\u0645\u0646\u062f",
    "description": null,
    "min_time": 60,
    "score": null,
    "star": null,
    "type": null,
    "state": "1",
    "created_by": 1,
    "updated_by": 1,
    "created_at": "2020-02-22 11:21:56",
    "updated_at": "2020-03-01 10:30:39",
    "deleted_at": null,
    "order_services": [],
    "timing": []
}, {
    "id": 15,
    "user_id": 55,
    "name": "\u0646\u0633\u062a\u0631\u0646",
    "image": "null",
    "family": "\u0631\u0627\u0633\u062a\u06af\u0648",
    "description": null,
    "min_time": null,
    "score": null,
    "star": null,
    "type": null,
    "state": null,
    "created_by": 2,
    "updated_by": null,
    "created_at": "2020-03-07 19:04:02",
    "updated_at": "2020-03-07 19:04:02",
    "deleted_at": null,
    "order_services": [],
    "timing": []
}, {
    "id": 16,
    "user_id": 57,
    "name": "\u0632\u06cc\u0628\u0627",
    "image": "null",
    "family": "\u0638\u0631\u06cc\u0641",
    "description": null,
    "min_time": null,
    "score": null,
    "star": null,
    "type": null,
    "state": null,
    "created_by": 2,
    "updated_by": null,
    "created_at": "2020-04-25 15:08:03",
    "updated_at": "2020-04-25 15:08:03",
    "deleted_at": null,
    "order_services": [],
    "timing": []
}]